<?xml version="1.0" encoding="UTF-8" standalone="no"?>
<!DOCTYPE log SYSTEM "logger.dtd">
<log>
<record>
  <date>2020-04-26T15:34:33.058099Z</date>
  <millis>1587915273058</millis>
  <nanos>99000</nanos>
  <sequence>0</sequence>
  <logger>Main_facade.Log_class.log_gen</logger>
  <level>CONFIG</level>
  <class>Main_facade.Log_class.log_gen</class>
  <method>&lt;init&gt;</method>
  <thread>1</thread>
  <message>Configuration done.</message>
</record>
<record>
  <date>2020-04-26T15:34:33.112105300Z</date>
  <millis>1587915273112</millis>
  <nanos>105300</nanos>
  <sequence>1</sequence>
  <logger>Main_facade.Log_class.log_gen</logger>
  <level>FINE</level>
  <class>Main_facade.Log_class.log_gen</class>
  <method>&lt;init&gt;</method>
  <thread>1</thread>
  <message>Finer logged</message>
</record>
<record>
  <date>2020-04-26T15:34:38.012465200Z</date>
  <millis>1587915278012</millis>
  <nanos>465200</nanos>
  <sequence>2</sequence>
  <logger>Main_facade.Log_class.log_gen</logger>
  <level>CONFIG</level>
  <class>Main_facade.Log_class.log_gen</class>
  <method>CONFIG_log</method>
  <thread>1</thread>
  <message>connection made to ip- 127.0.0.1 port 8123</message>
</record>
<record>
  <date>2020-04-26T15:35:32.373775500Z</date>
  <millis>1587915332373</millis>
  <nanos>775500</nanos>
  <sequence>3</sequence>
  <logger>Main_facade.Log_class.log_gen</logger>
  <level>CONFIG</level>
  <class>Main_facade.Log_class.log_gen</class>
  <method>CONFIG_log</method>
  <thread>1</thread>
  <message>connection made to ip- 127.0.0.1 port 8123</message>
</record>
<record>
  <date>2020-04-26T15:36:02.582848400Z</date>
  <millis>1587915362582</millis>
  <nanos>848400</nanos>
  <sequence>4</sequence>
  <logger>Main_facade.Log_class.log_gen</logger>
  <level>INFO</level>
  <class>Main_facade.Log_class.log_gen</class>
  <method>INFO_log</method>
  <thread>1</thread>
  <message>Can not recive msg</message>
</record>
<record>
  <date>2020-04-26T15:36:14.355717400Z</date>
  <millis>1587915374355</millis>
  <nanos>717400</nanos>
  <sequence>5</sequence>
  <logger>Main_facade.Log_class.log_gen</logger>
  <level>CONFIG</level>
  <class>Main_facade.Log_class.log_gen</class>
  <method>CONFIG_log</method>
  <thread>1</thread>
  <message>connection made to ip- 127.0.0.1 port 8123</message>
</record>
<record>
  <date>2020-04-26T15:36:38.715629300Z</date>
  <millis>1587915398715</millis>
  <nanos>629300</nanos>
  <sequence>6</sequence>
  <logger>Main_facade.Log_class.log_gen</logger>
  <level>INFO</level>
  <class>Main_facade.Log_class.log_gen</class>
  <method>INFO_log</method>
  <thread>1</thread>
  <message>Can not recive msg</message>
</record>
<record>
  <date>2020-04-26T15:36:42.686288300Z</date>
  <millis>1587915402686</millis>
  <nanos>288300</nanos>
  <sequence>7</sequence>
  <logger>Main_facade.Log_class.log_gen</logger>
  <level>CONFIG</level>
  <class>Main_facade.Log_class.log_gen</class>
  <method>CONFIG_log</method>
  <thread>1</thread>
  <message>connection made to ip- 127.0.0.1 port 8123</message>
</record>
<record>
  <date>2020-04-26T15:36:59.498754500Z</date>
  <millis>1587915419498</millis>
  <nanos>754500</nanos>
  <sequence>8</sequence>
  <logger>Main_facade.Log_class.log_gen</logger>
  <level>INFO</level>
  <class>Main_facade.Log_class.log_gen</class>
  <method>INFO_log</method>
  <thread>1</thread>
  <message>Can not recive msg</message>
</record>
<record>
  <date>2020-04-26T15:37:02.808140600Z</date>
  <millis>1587915422808</millis>
  <nanos>140600</nanos>
  <sequence>9</sequence>
  <logger>Main_facade.Log_class.log_gen</logger>
  <level>CONFIG</level>
  <class>Main_facade.Log_class.log_gen</class>
  <method>CONFIG_log</method>
  <thread>1</thread>
  <message>connection made to ip- 127.0.0.1 port 8123</message>
</record>
<record>
  <date>2020-04-26T15:37:18.102175100Z</date>
  <millis>1587915438102</millis>
  <nanos>175100</nanos>
  <sequence>10</sequence>
  <logger>Main_facade.Log_class.log_gen</logger>
  <level>INFO</level>
  <class>Main_facade.Log_class.log_gen</class>
  <method>INFO_log</method>
  <thread>1</thread>
  <message>Can not recive msg</message>
</record>
<record>
  <date>2020-04-26T15:38:18.286061100Z</date>
  <millis>1587915498286</millis>
  <nanos>61100</nanos>
  <sequence>11</sequence>
  <logger>Main_facade.Log_class.log_gen</logger>
  <level>CONFIG</level>
  <class>Main_facade.Log_class.log_gen</class>
  <method>CONFIG_log</method>
  <thread>1</thread>
  <message>connection made to ip- 127.0.0.1 port 8123</message>
</record>
<record>
  <date>2020-04-26T15:41:23.500064900Z</date>
  <millis>1587915683500</millis>
  <nanos>64900</nanos>
  <sequence>12</sequence>
  <logger>Main_facade.Log_class.log_gen</logger>
  <level>INFO</level>
  <class>Main_facade.Log_class.log_gen</class>
  <method>INFO_log</method>
  <thread>1</thread>
  <message>Can not recive msg</message>
</record>
<record>
  <date>2020-04-26T15:41:27.395505800Z</date>
  <millis>1587915687395</millis>
  <nanos>505800</nanos>
  <sequence>13</sequence>
  <logger>Main_facade.Log_class.log_gen</logger>
  <level>CONFIG</level>
  <class>Main_facade.Log_class.log_gen</class>
  <method>CONFIG_log</method>
  <thread>1</thread>
  <message>connection made to ip- 127.0.0.1 port 8123</message>
</record>
<record>
  <date>2020-04-26T15:41:40.590190600Z</date>
  <millis>1587915700590</millis>
  <nanos>190600</nanos>
  <sequence>14</sequence>
  <logger>Main_facade.Log_class.log_gen</logger>
  <level>INFO</level>
  <class>Main_facade.Log_class.log_gen</class>
  <method>INFO_log</method>
  <thread>1</thread>
  <message>Can not recive msg</message>
</record>
<record>
  <date>2020-04-26T15:42:06.096169800Z</date>
  <millis>1587915726096</millis>
  <nanos>169800</nanos>
  <sequence>15</sequence>
  <logger>Main_facade.Log_class.log_gen</logger>
  <level>CONFIG</level>
  <class>Main_facade.Log_class.log_gen</class>
  <method>CONFIG_log</method>
  <thread>1</thread>
  <message>connection made to ip- 127.0.0.1 port 8123</message>
</record>
<record>
  <date>2020-04-26T15:42:11.761375400Z</date>
  <millis>1587915731761</millis>
  <nanos>375400</nanos>
  <sequence>16</sequence>
  <logger>Main_facade.Log_class.log_gen</logger>
  <level>CONFIG</level>
  <class>Main_facade.Log_class.log_gen</class>
  <method>CONFIG_log</method>
  <thread>1</thread>
  <message>connection made to ip- 127.0.0.1 port 8123</message>
</record>
<record>
  <date>2020-04-26T15:43:11.525189700Z</date>
  <millis>1587915791525</millis>
  <nanos>189700</nanos>
  <sequence>17</sequence>
  <logger>Main_facade.Log_class.log_gen</logger>
  <level>CONFIG</level>
  <class>Main_facade.Log_class.log_gen</class>
  <method>CONFIG_log</method>
  <thread>1</thread>
  <message>connection made to ip- 127.0.0.1 port 8123</message>
</record>
